# 3ds Max Wavefront OBJ Exporter v0.94b - (c)2007 guruware
# File Created: 08.05.2012 10:08:25

newmtl wire_088088225
	Ns 32
	d 1
	Tr 1
	Tf 1 1 1
	illum 2
	Ka 0.0000 0.0000 0.0000
	Kd 0.3451 0.3451 0.8824
	Ks 0.3500 0.3500 0.3500

newmtl bacardi_cap_scanline
	Ns 46.0000
	Ni 1.5000
	d 1.0000
	Tr 1.0000
	Tf 1.0000 1.0000 1.0000 
	illum 2
	Ka 0.0000 0.0000 0.0000
	Kd 0.5880 0.5880 0.5880
	Ks 0.5940 0.5940 0.5940
	Ke 0.0000 0.0000 0.0000
	map_Ka C:\Users\Administrador\Desktop\Turbosquid\Alcohol\Bacardi\Textures\Bacardicap color.jpg
	map_Kd C:\Users\Administrador\Desktop\Turbosquid\Alcohol\Bacardi\Textures\Bacardicap color.jpg
	map_bump C:\Users\Administrador\Desktop\Turbosquid\Alcohol\Bacardi\Textures\Bacardicap bump.jpg
	bump C:\Users\Administrador\Desktop\Turbosquid\Alcohol\Bacardi\Textures\Bacardicap bump.jpg

newmtl White_rum_scanline
	Ns 0.0000
	Ni 1.5000
	d 1.0000
	Tr 1.0000
	Tf 1.0000 1.0000 1.0000 
	illum 2
	Ka 0.0000 0.0000 0.0000
	Kd 0.5880 0.5880 0.5880
	Ks 0.0000 0.0000 0.0000
	Ke 0.0000 0.0000 0.0000

newmtl transparent_plastic_scanline
	Ns 20.0000
	Ni 1.5000
	d 1.0000
	Tr 1.0000
	Tf 1.0000 1.0000 1.0000 
	illum 2
	Ka 0.0000 0.0000 0.0000
	Kd 0.5880 0.5880 0.5880
	Ks 0.6120 0.6120 0.6120
	Ke 0.0000 0.0000 0.0000
